《Bioinformatics Data Skills》读书笔记 | VincereZhou's blog
…
> install.packages("dplyr") # install dplyr if it's not already installed
> library(dplyr)
> d_df <- tbl_df(d)
> d_df
# A tibble: 59,140 x 20
   start   end total.SNPs total.Bases depth unique.SNPs
   <int> <int>      <int>       <int> <dbl>       <int>
 1 55001 56000          0        1894  3.41           0
 2 56001 57000          5        6683  6.68           2
 3 57001 58000          1        9063  9.06           1
 4 58001 59000          7       10256 10.3            3
 5 59001 60000          4        8057  8.06           4
 6 60001 61000          6        7051  7.05           2
 7 61001 62000          7        6950  6.95           2
 8 62001 63000          1        8834  8.83           1
 9 63001 64000          1        9629  9.63           1
10 64001 65000          3        7999  8              1
# ... with 59,130 more rows, and 14 more variables:
#   dhSNPs <int>, reference.Bases <int>, Theta <dbl>,
#   Pi <dbl>, Heterozygosity <dbl>, X.GC <dbl>,
#   Recombination <dbl>, Divergence <dbl>, Constraint <int>,
#   SNPs <int>, position <dbl>, diversity <dbl>, cent <lgl>,
#   GC.binned <fct>
…
> arrange(d_df, depth)
# A tibble: 59,140 x 20
    start    end total.SNPs total.Bases depth unique.SNPs
    <int>  <int>      <int>       <int> <dbl>       <int>
 1 1.23e6 1.24e6          0         444     1           0
 2 1.58e6 1.58e6          0         716     1           0
 3 2.80e6 2.80e6          0         277     1           0
 4 2.80e6 2.80e6          0         115     1           0
 5 7.09e6 7.09e6          0         519     1           0
 6 7.09e6 7.09e6          2         686     1           2
 7 1.16e7 1.16e7          1         429     1           1
 8 1.28e7 1.28e7          0         165     1           0
 9 2.58e7 2.58e7          0         221     1           0
10 2.58e7 2.58e7          0         172     1           0
# ... with 59,130 more rows, and 14 more variables:
#   dhSNPs <int>, reference.Bases <int>, Theta <dbl>,
#   Pi <dbl>, Heterozygosity <dbl>, X.GC <dbl>,
#   Recombination <dbl>, Divergence <dbl>, Constraint <int>,
#   SNPs <int>, position <dbl>, diversity <dbl>, cent <lgl>,
#   GC.binned <fct>
…
> arrange(d_df, desc(total.SNPs), desc(depth))
# A tibble: 59,140 x 20
    start    end total.SNPs total.Bases depth unique.SNPs
    <int>  <int>      <int>       <int> <dbl>       <int>
 1 2.62e6 2.62e6         93       11337 11.3           13
 2 1.30e7 1.30e7         88       11784 11.8           11
 3 4.74e7 4.74e7         87       12505 12.5            9
 4 6.00e7 6.00e7         84       11553 11.6           15
 5 8.77e6 8.77e6         83       10253 10.2           12
 6 1.78e7 1.78e7         81       13347 13.4           11
 7 4.74e7 4.74e7         80       14218 14.2            8
 8 4.59e7 4.59e7         80        9820  9.82          11
 9 2.49e7 2.49e7         78       11206 11.2           16
10 5.45e7 5.45e7         76        9691  9.69          12
# ... with 59,130 more rows, and 14 more variables:
#   dhSNPs <int>, reference.Bases <int>, Theta <dbl>,
#   Pi <dbl>, Heterozygosity <dbl>, X.GC <dbl>,
#   Recombination <dbl>, Divergence <dbl>, Constraint <int>,
#   SNPs <int>, position <dbl>, diversity <dbl>, cent <lgl>,
#   GC.binned <fct>
…
